{
    "prepare_queue": {
        "installed": [],
        "uninstalled": []
    },
    "config_munge": {
        "files": {
            "config.xml": {
                "parents": {
                    "/*": [
                        {
                            "xml": "<feature name=\"PaymentsPlugin\"><param name=\"ios-package\" value=\"PaymentsPlugin\" /></feature>",
                            "count": 1
                        },
                        {
                            "xml": "<feature name=\"AdMob\"><param name=\"ios-package\" value=\"CDVAdMobPlugin\" /><param name=\"onload\" value=\"true\" /></feature>",
                            "count": 1
                        },
                        {
                            "xml": "<feature name=\"SplashScreen\"><param name=\"ios-package\" value=\"CDVSplashScreen\" /><param name=\"onload\" value=\"true\" /></feature>",
                            "count": 1
                        },
                        {
                            "xml": "<feature name=\"Notification\"><param name=\"ios-package\" value=\"CDVNotification\" /></feature>",
                            "count": 1
                        },
                        {
                            "xml": "<feature name=\"Globalization\"><param name=\"ios-package\" value=\"CDVGlobalization\" /></feature>",
                            "count": 1
                        },
                        {
                            "xml": "<feature name=\"AppRate\"><param name=\"ios-package\" value=\"CDVAppRate\" /></feature>",
                            "count": 1
                        },
                        {
                            "xml": "<feature name=\"TTS\"><param name=\"ios-package\" value=\"CDVTTS\" /></feature>",
                            "count": 1
                        },
                        {
                            "xml": "<feature name=\"Clipboard\"><param name=\"ios-package\" value=\"Clipboard\" /></feature>",
                            "count": 1
                        }
                    ]
                }
            },
            "*-Info.plist": {
                "parents": {
                    "NSAppTransportSecurity": [
                        {
                            "xml": "<dict><key>NSAllowsArbitraryLoads</key><true /></dict>",
                            "count": 1
                        }
                    ]
                }
            }
        }
    },
    "installed_plugins": {
        "cordova-plugin-whitelist": {
            "PACKAGE_NAME": "io.cordova.hellocordova"
        },
        "cordova-plugin-inapppurchase": {
            "PACKAGE_NAME": "io.cordova.hellocordova"
        },
        "cordova-plugin-extension": {
            "PACKAGE_NAME": "io.cordova.hellocordova"
        },
        "cordova-plugin-admobpro": {
            "PACKAGE_NAME": "io.cordova.hellocordova"
        },
        "cordova-plugin-splashscreen": {
            "PACKAGE_NAME": "io.cordova.hellocordova"
        },
        "cordova-plugin-dialogs": {
            "PACKAGE_NAME": "io.cordova.hellocordova"
        },
        "cordova-plugin-globalization": {
            "PACKAGE_NAME": "io.cordova.hellocordova"
        },
        "cordova-plugin-apprate": {
            "PACKAGE_NAME": "io.cordova.hellocordova"
        },
        "cordova-plugin-tts": {
            "PACKAGE_NAME": "io.cordova.MalayPhrasebook"
        },
        "cordova-plugin-clipboard": {
            "PACKAGE_NAME": "io.cordova.MalayPhrasebook"
        }
    },
    "dependent_plugins": {},
    "modules": [
        {
            "file": "plugins/cordova-plugin-inapppurchase/www/index-ios.js",
            "id": "cordova-plugin-inapppurchase.PaymentsPlugin",
            "pluginId": "cordova-plugin-inapppurchase",
            "clobbers": [
                "inAppPurchase"
            ]
        },
        {
            "file": "plugins/cordova-plugin-admobpro/www/AdMob.js",
            "id": "cordova-plugin-admobpro.AdMob",
            "pluginId": "cordova-plugin-admobpro",
            "clobbers": [
                "window.AdMob"
            ]
        },
        {
            "file": "plugins/cordova-plugin-splashscreen/www/splashscreen.js",
            "id": "cordova-plugin-splashscreen.SplashScreen",
            "pluginId": "cordova-plugin-splashscreen",
            "clobbers": [
                "navigator.splashscreen"
            ]
        },
        {
            "file": "plugins/cordova-plugin-dialogs/www/notification.js",
            "id": "cordova-plugin-dialogs.notification",
            "pluginId": "cordova-plugin-dialogs",
            "merges": [
                "navigator.notification"
            ]
        },
        {
            "file": "plugins/cordova-plugin-globalization/www/GlobalizationError.js",
            "id": "cordova-plugin-globalization.GlobalizationError",
            "pluginId": "cordova-plugin-globalization",
            "clobbers": [
                "window.GlobalizationError"
            ]
        },
        {
            "file": "plugins/cordova-plugin-globalization/www/globalization.js",
            "id": "cordova-plugin-globalization.globalization",
            "pluginId": "cordova-plugin-globalization",
            "clobbers": [
                "navigator.globalization"
            ]
        },
        {
            "file": "plugins/cordova-plugin-apprate/www/AppRate.js",
            "id": "cordova-plugin-apprate.AppRate",
            "pluginId": "cordova-plugin-apprate",
            "clobbers": [
                "AppRate"
            ]
        },
        {
            "file": "plugins/cordova-plugin-apprate/www/locales.js",
            "id": "cordova-plugin-apprate.locales",
            "pluginId": "cordova-plugin-apprate",
            "runs": true
        },
        {
            "file": "plugins/cordova-plugin-tts/www/tts.js",
            "id": "cordova-plugin-tts.tts",
            "pluginId": "cordova-plugin-tts",
            "clobbers": [
                "TTS"
            ]
        },
        {
            "file": "plugins/cordova-plugin-clipboard/www/clipboard.js",
            "id": "cordova-plugin-clipboard.clipboard",
            "pluginId": "cordova-plugin-clipboard",
            "clobbers": [
                "cordova.plugins.clipboard"
            ]
        }
    ]
}