{
    "prepare_queue": {
        "installed": [],
        "uninstalled": []
    },
    "config_munge": {
        "files": {}
    },
    "installed_plugins": {
        "cordova-plugin-whitelist": {
            "PACKAGE_NAME": "io.cordova.hellocordova"
        },
        "cordova-plugin-inapppurchase": {
            "PACKAGE_NAME": "io.cordova.hellocordova"
        },
        "cordova-plugin-admobpro": {
            "PACKAGE_NAME": "io.cordova.hellocordova"
        },
        "cordova-plugin-splashscreen": {
            "PACKAGE_NAME": "io.cordova.hellocordova"
        },
        "cordova-plugin-apprate": {
            "PACKAGE_NAME": "io.cordova.MalayPhrasebook"
        },
        "cordova-plugin-tts": {
            "PACKAGE_NAME": "io.cordova.MalayPhrasebook"
        },
        "cordova-plugin-clipboard": {
            "PACKAGE_NAME": "io.cordova.MalayPhrasebook"
        }
    },
    "dependent_plugins": {
        "cordova-plugin-extension": {
            "PACKAGE_NAME": "io.cordova.hellocordova"
        },
        "cordova-plugin-dialogs": {
            "PACKAGE_NAME": "io.cordova.MalayPhrasebook"
        },
        "cordova-plugin-globalization": {
            "PACKAGE_NAME": "io.cordova.MalayPhrasebook"
        }
    }
}