{
    "cordova-plugin-whitelist": {
        "source": {
            "type": "registry",
            "id": "cordova-plugin-whitelist@1"
        },
        "is_top_level": true,
        "variables": {}
    },
    "cordova-plugin-inapppurchase": {
        "source": {
            "type": "registry",
            "id": "cordova-plugin-inapppurchase"
        },
        "is_top_level": true,
        "variables": {}
    },
    "cordova-plugin-admobpro": {
        "source": {
            "type": "registry",
            "id": "cordova-plugin-admobpro"
        },
        "is_top_level": true,
        "variables": {}
    },
    "cordova-plugin-extension": {
        "source": {
            "type": "registry",
            "id": "cordova-plugin-extension"
        },
        "is_top_level": false,
        "variables": {}
    },
    "cordova-plugin-splashscreen": {
        "source": {
            "type": "registry",
            "id": "cordova-plugin-splashscreen@2.0"
        },
        "is_top_level": true,
        "variables": {}
    },
    "cordova-plugin-apprate": {
        "source": {
            "type": "registry",
            "id": "cordova-plugin-apprate"
        },
        "is_top_level": true,
        "variables": {}
    },
    "cordova-plugin-dialogs": {
        "source": {
            "type": "registry",
            "id": "cordova-plugin-dialogs"
        },
        "is_top_level": false,
        "variables": {}
    },
    "cordova-plugin-globalization": {
        "source": {
            "type": "registry",
            "id": "cordova-plugin-globalization"
        },
        "is_top_level": false,
        "variables": {}
    },
    "cordova-plugin-tts": {
        "source": {
            "type": "registry",
            "id": "cordova-plugin-tts"
        },
        "is_top_level": true,
        "variables": {}
    },
    "cordova-plugin-clipboard": {
        "source": {
            "type": "git",
            "url": "https://github.com/xxsnakerxx/cordova-plugin-clipboard",
            "subdir": "."
        },
        "is_top_level": true,
        "variables": {}
    }
}